…
``` r
# Credible Interval of beta[i] and sigma2 (highest-density interval/hdi --> narrowest possible interval that still gives me 95% area, good for very skewed distributions, bad for bimodal distributions 
# vs. quantile interval/qi)
df_ci = tidybayes::mean_hdi(df_mcmc, 
                            .value, 
                            .width=c(0.8, 0.95) # 80% and 85% credible intervals
)

df_ci
```

    ## # A tibble: 40 x 8
    ## # Groups:   param [5]
    ##    param   .chain .value .lower .upper .width .point .interval
    ##    <chr>    <int>  <dbl>  <dbl>  <dbl>  <dbl> <chr>  <chr>    
    ##  1 beta[1]      1  0.752  0.629  0.894    0.8 mean   hdi      
    ##  2 beta[1]      2  0.753  0.618  0.888    0.8 mean   hdi      
    ##  3 beta[1]      3  0.754  0.604  0.876    0.8 mean   hdi      
    ##  4 beta[1]      4  0.753  0.612  0.887    0.8 mean   hdi      
    ##  5 beta[2]      1  1.44   1.32   1.55     0.8 mean   hdi      
    ##  6 beta[2]      2  1.44   1.32   1.54     0.8 mean   hdi      
    ##  7 beta[2]      3  1.44   1.33   1.55     0.8 mean   hdi      
    ##  8 beta[2]      4  1.44   1.33   1.55     0.8 mean   hdi      
    ##  9 beta[3]      1 -2.26  -2.37  -2.14     0.8 mean   hdi      
    ## 10 beta[3]      2 -2.26  -2.37  -2.14     0.8 mean   hdi      
    ## # … with 30 more rows
…
update(m, n.iter=n_burn, progress.bar="none")

pred = rjags::coda.samples(
  m_pred, variable.names=c("beta","sigma2","mu","y_pred","y","x"), 
  n.iter=n_iter, progress.bar="none"
)

df_pred = tidybayes::spread_draws(pred, y_pred[i], y[i], x[i], mu[i]) %>%
  mutate(resid = y - mu)

df_pred
```

    ## # A tibble: 500,000 x 9
    ## # Groups:   i [100]
    ##        i  y_pred .chain .iteration .draw     y     x     mu resid
    ##    <int>   <dbl>  <int>      <int> <int> <dbl> <dbl>  <dbl> <dbl>
    ##  1     1 -0.0236      1          1     1 -3.24     1 -0.128 -3.11
    ##  2     1 -0.616       1          2     2 -3.24     1 -0.159 -3.08
    ##  3     1  0.257       1          3     3 -3.24     1 -0.551 -2.69
    ##  4     1 -1.97        1          4     4 -3.24     1 -0.537 -2.70
    ##  5     1  2.21        1          5     5 -3.24     1 -0.253 -2.99
    ##  6     1 -0.251       1          6     6 -3.24     1 -0.491 -2.75
    ##  7     1 -2.50        1          7     7 -3.24     1 -1.01  -2.23
    ##  8     1 -1.47        1          8     8 -3.24     1 -1.07  -2.17
    ##  9     1  0.661       1          9     9 -3.24     1 -1.07  -2.17
    ## 10     1 -1.42        1         10    10 -3.24     1 -0.805 -2.44
    ## # … with 499,990 more rows
…
