…
``` r
# Credible Interval of beta[i] and sigma2 (highest-density interval/hdi --> narrowest possible interval that still gives me 95% area, good for very skewed distributions, bad for bimodal distributions 
# vs. quantile interval/qi)
df_ci = tidybayes::mean_hdi(df_mcmc, 
                            .value, 
                            .width=c(0.8, 0.95) # 80% and 85% credible intervals
)

df_ci
```

    ## # A tibble: 40 x 8
    ## # Groups:   param [5]
    ##    param   .chain .value .lower .upper .width .point .interval
    ##    <chr>    <int>  <dbl>  <dbl>  <dbl>  <dbl> <chr>  <chr>    
    ##  1 beta[1]      1  0.755  0.624  0.892    0.8 mean   hdi      
    ##  2 beta[1]      2  0.751  0.614  0.882    0.8 mean   hdi      
    ##  3 beta[1]      3  0.754  0.629  0.898    0.8 mean   hdi      
    ##  4 beta[1]      4  0.750  0.622  0.890    0.8 mean   hdi      
    ##  5 beta[2]      1  1.44   1.32   1.55     0.8 mean   hdi      
    ##  6 beta[2]      2  1.44   1.32   1.55     0.8 mean   hdi      
    ##  7 beta[2]      3  1.44   1.33   1.56     0.8 mean   hdi      
    ##  8 beta[2]      4  1.44   1.33   1.56     0.8 mean   hdi      
    ##  9 beta[3]      1 -2.26  -2.37  -2.15     0.8 mean   hdi      
    ## 10 beta[3]      2 -2.26  -2.36  -2.13     0.8 mean   hdi      
    ## # … with 30 more rows
…
