…
update(m_pred, n.iter=n_burn, progress.bar="none")

pred = rjags::coda.samples(
  m_pred, variable.names=c("beta","sigma2","mu","y_pred","y","x"), 
  n.iter=n_iter, progress.bar="none"
)

df_pred = tidybayes::spread_draws(pred, y_pred[i], y[i], x[i], mu[i]) %>%
  mutate(resid = y - mu)

df_pred
```

    ## # A tibble: 500,000 x 9
    ## # Groups:   i [100]
    ##        i y_pred .chain .iteration .draw     y     x     mu resid
    ##    <int>  <dbl>  <int>      <int> <int> <dbl> <dbl>  <dbl> <dbl>
    ##  1     1 -5.43       1          1     1 -3.24     1 -0.916 -2.32
    ##  2     1 -1.48       1          2     2 -3.24     1 -0.551 -2.69
    ##  3     1 -4.83       1          3     3 -3.24     1 -1.16  -2.08
    ##  4     1 -0.174      1          4     4 -3.24     1 -1.18  -2.06
    ##  5     1 -2.45       1          5     5 -3.24     1 -1.13  -2.11
    ##  6     1 -0.807      1          6     6 -3.24     1 -1.26  -1.98
    ##  7     1 -3.31       1          7     7 -3.24     1 -1.10  -2.14
    ##  8     1  0.165      1          8     8 -3.24     1 -1.17  -2.07
    ##  9     1  1.39       1          9     9 -3.24     1 -0.734 -2.51
    ## 10     1 -1.42       1         10    10 -3.24     1 -0.650 -2.59
    ## # … with 499,990 more rows
…
