…
SOI is indicator of development and intensity of El Niño (negative SOI) or La Niña (positive SOI).


```r
library(astsa)
fish = data_frame(
  date = time(astsa::soi),
  soi = astsa::soi,
  recruitment = astsa::rec
)
fish
```

```
## # A tibble: 453 x 3
##    date     soi    recruitment
##    <ts>     <ts>   <ts>       
##  1 1950.000  0.377 68.63      
##  2 1950.083  0.246 68.63      
##  3 1950.167  0.311 68.63      
##  4 1950.250  0.104 68.63      
##  5 1950.333 -0.016 68.63      
##  6 1950.417  0.235 68.63      
##  7 1950.500  0.137 59.16      
##  8 1950.583  0.191 48.70      
##  9 1950.667 -0.016 47.54      
## 10 1950.750  0.290 50.91      
## # … with 443 more rows
```
…
